^C:\USERS\YOICHIROU\DOCUMENTS\LTEAM_SEISAKU2\LIBS\DIRECTXTEX\DIRECTXTEXUTIL.CPP
C:\USERS\YOICHIROU\DOCUMENTS\LTEAM_SEISAKU2\LTEAM_SEISAKU\TEMP\DIRECTXTX\DX11\RELEASE\DIRECTXTEX.PCH
C:\USERS\YOICHIROU\DOCUMENTS\LTEAM_SEISAKU2\LTEAM_SEISAKU\TEMP\DIRECTXTX\DX11\RELEASE\DIRECTXTEX.PDB
C:\USERS\YOICHIROU\DOCUMENTS\LTEAM_SEISAKU2\LTEAM_SEISAKU\TEMP\DIRECTXTX\DX11\RELEASE\DIRECTXTEXUTIL.OBJ
^C:\USERS\YOICHIROU\DOCUMENTS\LTEAM_SEISAKU2\LIBS\DIRECTXTEX\BC.CPP|C:\USERS\YOICHIROU\DOCUMENTS\LTEAM_SEISAKU2\LIBS\DIRECTXTEX\BC4BC5.CPP|C:\USERS\YOICHIROU\DOCUMENTS\LTEAM_SEISAKU2\LIBS\DIRECTXTEX\BC6HBC7.CPP|C:\USERS\YOICHIROU\DOCUMENTS\LTEAM_SEISAKU2\LIBS\DIRECTXTEX\BCDIRECTCOMPUTE.CPP|C:\USERS\YOICHIROU\DOCUMENTS\LTEAM_SEISAKU2\LIBS\DIRECTXTEX\DIRECTXTEXCOMPRESS.CPP|C:\USERS\YOICHIROU\DOCUMENTS\LTEAM_SEISAKU2\LIBS\DIRECTXTEX\DIRECTXTEXCOMPRESSGPU.CPP|C:\USERS\YOICHIROU\DOCUMENTS\LTEAM_SEISAKU2\LIBS\DIRECTXTEX\DIRECTXTEXCONVERT.CPP|C:\USERS\YOICHIROU\DOCUMENTS\LTEAM_SEISAKU2\LIBS\DIRECTXTEX\DIRECTXTEXD3D11.CPP|C:\USERS\YOICHIROU\DOCUMENTS\LTEAM_SEISAKU2\LIBS\DIRECTXTEX\DIRECTXTEXDDS.CPP|C:\USERS\YOICHIROU\DOCUMENTS\LTEAM_SEISAKU2\LIBS\DIRECTXTEX\DIRECTXTEXFLIPROTATE.CPP|C:\USERS\YOICHIROU\DOCUMENTS\LTEAM_SEISAKU2\LIBS\DIRECTXTEX\DIRECTXTEXIMAGE.CPP|C:\USERS\YOICHIROU\DOCUMENTS\LTEAM_SEISAKU2\LIBS\DIRECTXTEX\DIRECTXTEXMIPMAPS.CPP|C:\USERS\YOICHIROU\DOCUMENTS\LTEAM_SEISAKU2\LIBS\DIRECTXTEX\DIRECTXTEXMISC.CPP|C:\USERS\YOICHIROU\DOCUMENTS\LTEAM_SEISAKU2\LIBS\DIRECTXTEX\DIRECTXTEXNORMALMAPS.CPP|C:\USERS\YOICHIROU\DOCUMENTS\LTEAM_SEISAKU2\LIBS\DIRECTXTEX\DIRECTXTEXPMALPHA.CPP|C:\USERS\YOICHIROU\DOCUMENTS\LTEAM_SEISAKU2\LIBS\DIRECTXTEX\DIRECTXTEXRESIZE.CPP|C:\USERS\YOICHIROU\DOCUMENTS\LTEAM_SEISAKU2\LIBS\DIRECTXTEX\DIRECTXTEXTGA.CPP|C:\USERS\YOICHIROU\DOCUMENTS\LTEAM_SEISAKU2\LIBS\DIRECTXTEX\DIRECTXTEXWIC.CPP
C:\USERS\YOICHIROU\DOCUMENTS\LTEAM_SEISAKU2\LTEAM_SEISAKU\TEMP\DIRECTXTX\DX11\RELEASE\DIRECTXTEX.PDB
C:\USERS\YOICHIROU\DOCUMENTS\LTEAM_SEISAKU2\LTEAM_SEISAKU\TEMP\DIRECTXTX\DX11\RELEASE\DIRECTXTEXWIC.OBJ
C:\USERS\YOICHIROU\DOCUMENTS\LTEAM_SEISAKU2\LTEAM_SEISAKU\TEMP\DIRECTXTX\DX11\RELEASE\DIRECTXTEXTGA.OBJ
C:\USERS\YOICHIROU\DOCUMENTS\LTEAM_SEISAKU2\LTEAM_SEISAKU\TEMP\DIRECTXTX\DX11\RELEASE\DIRECTXTEXRESIZE.OBJ
C:\USERS\YOICHIROU\DOCUMENTS\LTEAM_SEISAKU2\LTEAM_SEISAKU\TEMP\DIRECTXTX\DX11\RELEASE\DIRECTXTEXPMALPHA.OBJ
C:\USERS\YOICHIROU\DOCUMENTS\LTEAM_SEISAKU2\LTEAM_SEISAKU\TEMP\DIRECTXTX\DX11\RELEASE\DIRECTXTEXNORMALMAPS.OBJ
C:\USERS\YOICHIROU\DOCUMENTS\LTEAM_SEISAKU2\LTEAM_SEISAKU\TEMP\DIRECTXTX\DX11\RELEASE\DIRECTXTEXMISC.OBJ
C:\USERS\YOICHIROU\DOCUMENTS\LTEAM_SEISAKU2\LTEAM_SEISAKU\TEMP\DIRECTXTX\DX11\RELEASE\DIRECTXTEXMIPMAPS.OBJ
C:\USERS\YOICHIROU\DOCUMENTS\LTEAM_SEISAKU2\LTEAM_SEISAKU\TEMP\DIRECTXTX\DX11\RELEASE\DIRECTXTEXIMAGE.OBJ
C:\USERS\YOICHIROU\DOCUMENTS\LTEAM_SEISAKU2\LTEAM_SEISAKU\TEMP\DIRECTXTX\DX11\RELEASE\DIRECTXTEXFLIPROTATE.OBJ
C:\USERS\YOICHIROU\DOCUMENTS\LTEAM_SEISAKU2\LTEAM_SEISAKU\TEMP\DIRECTXTX\DX11\RELEASE\DIRECTXTEXDDS.OBJ
C:\USERS\YOICHIROU\DOCUMENTS\LTEAM_SEISAKU2\LTEAM_SEISAKU\TEMP\DIRECTXTX\DX11\RELEASE\DIRECTXTEXD3D11.OBJ
C:\USERS\YOICHIROU\DOCUMENTS\LTEAM_SEISAKU2\LTEAM_SEISAKU\TEMP\DIRECTXTX\DX11\RELEASE\DIRECTXTEXCONVERT.OBJ
C:\USERS\YOICHIROU\DOCUMENTS\LTEAM_SEISAKU2\LTEAM_SEISAKU\TEMP\DIRECTXTX\DX11\RELEASE\DIRECTXTEXCOMPRESSGPU.OBJ
C:\USERS\YOICHIROU\DOCUMENTS\LTEAM_SEISAKU2\LTEAM_SEISAKU\TEMP\DIRECTXTX\DX11\RELEASE\DIRECTXTEXCOMPRESS.OBJ
C:\USERS\YOICHIROU\DOCUMENTS\LTEAM_SEISAKU2\LTEAM_SEISAKU\TEMP\DIRECTXTX\DX11\RELEASE\BCDIRECTCOMPUTE.OBJ
C:\USERS\YOICHIROU\DOCUMENTS\LTEAM_SEISAKU2\LTEAM_SEISAKU\TEMP\DIRECTXTX\DX11\RELEASE\BC6HBC7.OBJ
C:\USERS\YOICHIROU\DOCUMENTS\LTEAM_SEISAKU2\LTEAM_SEISAKU\TEMP\DIRECTXTX\DX11\RELEASE\BC4BC5.OBJ
C:\USERS\YOICHIROU\DOCUMENTS\LTEAM_SEISAKU2\LTEAM_SEISAKU\TEMP\DIRECTXTX\DX11\RELEASE\BC.OBJ
^C:\USERS\YOICHIROU\DOCUMENTS\LTEAM_SEISAKU2\LIBS\DIRECTXTEX\BC.CPP
C:\USERS\YOICHIROU\DOCUMENTS\LTEAM_SEISAKU2\LTEAM_SEISAKU\TEMP\DIRECTXTX\DX11\RELEASE\DIRECTXTEX.PDB
^C:\USERS\YOICHIROU\DOCUMENTS\LTEAM_SEISAKU2\LIBS\DIRECTXTEX\BC4BC5.CPP
C:\USERS\YOICHIROU\DOCUMENTS\LTEAM_SEISAKU2\LTEAM_SEISAKU\TEMP\DIRECTXTX\DX11\RELEASE\DIRECTXTEX.PDB
^C:\USERS\YOICHIROU\DOCUMENTS\LTEAM_SEISAKU2\LIBS\DIRECTXTEX\BC6HBC7.CPP
C:\USERS\YOICHIROU\DOCUMENTS\LTEAM_SEISAKU2\LTEAM_SEISAKU\TEMP\DIRECTXTX\DX11\RELEASE\DIRECTXTEX.PDB
^C:\USERS\YOICHIROU\DOCUMENTS\LTEAM_SEISAKU2\LIBS\DIRECTXTEX\BCDIRECTCOMPUTE.CPP
C:\USERS\YOICHIROU\DOCUMENTS\LTEAM_SEISAKU2\LTEAM_SEISAKU\TEMP\DIRECTXTX\DX11\RELEASE\DIRECTXTEX.PDB
^C:\USERS\YOICHIROU\DOCUMENTS\LTEAM_SEISAKU2\LIBS\DIRECTXTEX\DIRECTXTEXCOMPRESS.CPP
C:\USERS\YOICHIROU\DOCUMENTS\LTEAM_SEISAKU2\LTEAM_SEISAKU\TEMP\DIRECTXTX\DX11\RELEASE\DIRECTXTEX.PDB
^C:\USERS\YOICHIROU\DOCUMENTS\LTEAM_SEISAKU2\LIBS\DIRECTXTEX\DIRECTXTEXCOMPRESSGPU.CPP
C:\USERS\YOICHIROU\DOCUMENTS\LTEAM_SEISAKU2\LTEAM_SEISAKU\TEMP\DIRECTXTX\DX11\RELEASE\DIRECTXTEX.PDB
^C:\USERS\YOICHIROU\DOCUMENTS\LTEAM_SEISAKU2\LIBS\DIRECTXTEX\DIRECTXTEXCONVERT.CPP
C:\USERS\YOICHIROU\DOCUMENTS\LTEAM_SEISAKU2\LTEAM_SEISAKU\TEMP\DIRECTXTX\DX11\RELEASE\DIRECTXTEX.PDB
^C:\USERS\YOICHIROU\DOCUMENTS\LTEAM_SEISAKU2\LIBS\DIRECTXTEX\DIRECTXTEXD3D11.CPP
C:\USERS\YOICHIROU\DOCUMENTS\LTEAM_SEISAKU2\LTEAM_SEISAKU\TEMP\DIRECTXTX\DX11\RELEASE\DIRECTXTEX.PDB
^C:\USERS\YOICHIROU\DOCUMENTS\LTEAM_SEISAKU2\LIBS\DIRECTXTEX\DIRECTXTEXDDS.CPP
C:\USERS\YOICHIROU\DOCUMENTS\LTEAM_SEISAKU2\LTEAM_SEISAKU\TEMP\DIRECTXTX\DX11\RELEASE\DIRECTXTEX.PDB
^C:\USERS\YOICHIROU\DOCUMENTS\LTEAM_SEISAKU2\LIBS\DIRECTXTEX\DIRECTXTEXFLIPROTATE.CPP
C:\USERS\YOICHIROU\DOCUMENTS\LTEAM_SEISAKU2\LTEAM_SEISAKU\TEMP\DIRECTXTX\DX11\RELEASE\DIRECTXTEX.PDB
^C:\USERS\YOICHIROU\DOCUMENTS\LTEAM_SEISAKU2\LIBS\DIRECTXTEX\DIRECTXTEXIMAGE.CPP
C:\USERS\YOICHIROU\DOCUMENTS\LTEAM_SEISAKU2\LTEAM_SEISAKU\TEMP\DIRECTXTX\DX11\RELEASE\DIRECTXTEX.PDB
^C:\USERS\YOICHIROU\DOCUMENTS\LTEAM_SEISAKU2\LIBS\DIRECTXTEX\DIRECTXTEXMIPMAPS.CPP
C:\USERS\YOICHIROU\DOCUMENTS\LTEAM_SEISAKU2\LTEAM_SEISAKU\TEMP\DIRECTXTX\DX11\RELEASE\DIRECTXTEX.PDB
^C:\USERS\YOICHIROU\DOCUMENTS\LTEAM_SEISAKU2\LIBS\DIRECTXTEX\DIRECTXTEXMISC.CPP
C:\USERS\YOICHIROU\DOCUMENTS\LTEAM_SEISAKU2\LTEAM_SEISAKU\TEMP\DIRECTXTX\DX11\RELEASE\DIRECTXTEX.PDB
^C:\USERS\YOICHIROU\DOCUMENTS\LTEAM_SEISAKU2\LIBS\DIRECTXTEX\DIRECTXTEXNORMALMAPS.CPP
C:\USERS\YOICHIROU\DOCUMENTS\LTEAM_SEISAKU2\LTEAM_SEISAKU\TEMP\DIRECTXTX\DX11\RELEASE\DIRECTXTEX.PDB
^C:\USERS\YOICHIROU\DOCUMENTS\LTEAM_SEISAKU2\LIBS\DIRECTXTEX\DIRECTXTEXPMALPHA.CPP
C:\USERS\YOICHIROU\DOCUMENTS\LTEAM_SEISAKU2\LTEAM_SEISAKU\TEMP\DIRECTXTX\DX11\RELEASE\DIRECTXTEX.PDB
^C:\USERS\YOICHIROU\DOCUMENTS\LTEAM_SEISAKU2\LIBS\DIRECTXTEX\DIRECTXTEXRESIZE.CPP
C:\USERS\YOICHIROU\DOCUMENTS\LTEAM_SEISAKU2\LTEAM_SEISAKU\TEMP\DIRECTXTX\DX11\RELEASE\DIRECTXTEX.PDB
^C:\USERS\YOICHIROU\DOCUMENTS\LTEAM_SEISAKU2\LIBS\DIRECTXTEX\DIRECTXTEXTGA.CPP
C:\USERS\YOICHIROU\DOCUMENTS\LTEAM_SEISAKU2\LTEAM_SEISAKU\TEMP\DIRECTXTX\DX11\RELEASE\DIRECTXTEX.PDB
^C:\USERS\YOICHIROU\DOCUMENTS\LTEAM_SEISAKU2\LIBS\DIRECTXTEX\DIRECTXTEXWIC.CPP
C:\USERS\YOICHIROU\DOCUMENTS\LTEAM_SEISAKU2\LTEAM_SEISAKU\TEMP\DIRECTXTX\DX11\RELEASE\DIRECTXTEX.PDB
