^C:\USERS\TAKUTO\DESKTOP\BASECROSS-MASTER\SIMPLSAMPLE015\DXSHARED\SHADERS\PSPCSPRITE.HLSL
C:\USERS\TAKUTO\DESKTOP\BASECROSS-MASTER\SIMPLSAMPLE015\MEDIA\SHADERS\PSPCSPRITE.CSO
^C:\USERS\TAKUTO\DESKTOP\BASECROSS-MASTER\SIMPLSAMPLE015\DXSHARED\SHADERS\PSPCSTATIC.HLSL
C:\USERS\TAKUTO\DESKTOP\BASECROSS-MASTER\SIMPLSAMPLE015\MEDIA\SHADERS\PSPCSTATIC.CSO
^C:\USERS\TAKUTO\DESKTOP\BASECROSS-MASTER\SIMPLSAMPLE015\DXSHARED\SHADERS\PSPCTSPRITE.HLSL
C:\USERS\TAKUTO\DESKTOP\BASECROSS-MASTER\SIMPLSAMPLE015\MEDIA\SHADERS\PSPCTSPRITE.CSO
^C:\USERS\TAKUTO\DESKTOP\BASECROSS-MASTER\SIMPLSAMPLE015\DXSHARED\SHADERS\PSPCTSTATIC.HLSL
C:\USERS\TAKUTO\DESKTOP\BASECROSS-MASTER\SIMPLSAMPLE015\MEDIA\SHADERS\PSPCTSTATIC.CSO
^C:\USERS\TAKUTO\DESKTOP\BASECROSS-MASTER\SIMPLSAMPLE015\DXSHARED\SHADERS\PSPNTSTATIC.HLSL
C:\USERS\TAKUTO\DESKTOP\BASECROSS-MASTER\SIMPLSAMPLE015\MEDIA\SHADERS\PSPNTSTATIC.CSO
^C:\USERS\TAKUTO\DESKTOP\BASECROSS-MASTER\SIMPLSAMPLE015\DXSHARED\SHADERS\PSPNTSTATICSHADOW.HLSL
C:\USERS\TAKUTO\DESKTOP\BASECROSS-MASTER\SIMPLSAMPLE015\MEDIA\SHADERS\PSPNTSTATICSHADOW.CSO
^C:\USERS\TAKUTO\DESKTOP\BASECROSS-MASTER\SIMPLSAMPLE015\DXSHARED\SHADERS\PSPNTSTATICSHADOW2.HLSL
C:\USERS\TAKUTO\DESKTOP\BASECROSS-MASTER\SIMPLSAMPLE015\MEDIA\SHADERS\PSPNTSTATICSHADOW2.CSO
^C:\USERS\TAKUTO\DESKTOP\BASECROSS-MASTER\SIMPLSAMPLE015\DXSHARED\SHADERS\PSPTSPRITE.HLSL
C:\USERS\TAKUTO\DESKTOP\BASECROSS-MASTER\SIMPLSAMPLE015\MEDIA\SHADERS\PSPTSPRITE.CSO
^C:\USERS\TAKUTO\DESKTOP\BASECROSS-MASTER\SIMPLSAMPLE015\DXSHARED\SHADERS\VSPCSPRITE.HLSL
C:\USERS\TAKUTO\DESKTOP\BASECROSS-MASTER\SIMPLSAMPLE015\MEDIA\SHADERS\VSPCSPRITE.CSO
^C:\USERS\TAKUTO\DESKTOP\BASECROSS-MASTER\SIMPLSAMPLE015\DXSHARED\SHADERS\VSPCSTATIC.HLSL
C:\USERS\TAKUTO\DESKTOP\BASECROSS-MASTER\SIMPLSAMPLE015\MEDIA\SHADERS\VSPCSTATIC.CSO
^C:\USERS\TAKUTO\DESKTOP\BASECROSS-MASTER\SIMPLSAMPLE015\DXSHARED\SHADERS\VSPCTINSTANCE.HLSL
C:\USERS\TAKUTO\DESKTOP\BASECROSS-MASTER\SIMPLSAMPLE015\MEDIA\SHADERS\VSPCTINSTANCE.CSO
^C:\USERS\TAKUTO\DESKTOP\BASECROSS-MASTER\SIMPLSAMPLE015\DXSHARED\SHADERS\VSPCTSPRITE.HLSL
C:\USERS\TAKUTO\DESKTOP\BASECROSS-MASTER\SIMPLSAMPLE015\MEDIA\SHADERS\VSPCTSPRITE.CSO
^C:\USERS\TAKUTO\DESKTOP\BASECROSS-MASTER\SIMPLSAMPLE015\DXSHARED\SHADERS\VSPCTSTATIC.HLSL
C:\USERS\TAKUTO\DESKTOP\BASECROSS-MASTER\SIMPLSAMPLE015\MEDIA\SHADERS\VSPCTSTATIC.CSO
^C:\USERS\TAKUTO\DESKTOP\BASECROSS-MASTER\SIMPLSAMPLE015\DXSHARED\SHADERS\VSPNTSTATIC.HLSL
C:\USERS\TAKUTO\DESKTOP\BASECROSS-MASTER\SIMPLSAMPLE015\MEDIA\SHADERS\VSPNTSTATIC.CSO
^C:\USERS\TAKUTO\DESKTOP\BASECROSS-MASTER\SIMPLSAMPLE015\DXSHARED\SHADERS\VSPNTSTATICSHADOW.HLSL
C:\USERS\TAKUTO\DESKTOP\BASECROSS-MASTER\SIMPLSAMPLE015\MEDIA\SHADERS\VSPNTSTATICSHADOW.CSO
^C:\USERS\TAKUTO\DESKTOP\BASECROSS-MASTER\SIMPLSAMPLE015\DXSHARED\SHADERS\VSPTSPRITE.HLSL
C:\USERS\TAKUTO\DESKTOP\BASECROSS-MASTER\SIMPLSAMPLE015\MEDIA\SHADERS\VSPTSPRITE.CSO
^C:\USERS\TAKUTO\DESKTOP\BASECROSS-MASTER\SIMPLSAMPLE015\DXSHARED\SHADERS\VSSHADOWMAP.HLSL
C:\USERS\TAKUTO\DESKTOP\BASECROSS-MASTER\SIMPLSAMPLE015\MEDIA\SHADERS\VSSHADOWMAP.CSO
^C:\USERS\TAKUTO\DESKTOP\BASECROSS-MASTER\SIMPLSAMPLE015\DXSHARED\SHADERS\VSSHADOWMAPBONE.HLSL
C:\USERS\TAKUTO\DESKTOP\BASECROSS-MASTER\SIMPLSAMPLE015\MEDIA\SHADERS\VSSHADOWMAPBONE.CSO
^C:\USERS\TAKUTO\DOCUMENTS\LTEAM_SEISAKU2\LTEAM_SEISAKU\DXSHARED\SHADERS\PSPCSPRITE.HLSL
C:\USERS\TAKUTO\DOCUMENTS\LTEAM_SEISAKU2\LTEAM_SEISAKU\MEDIA\SHADERS\PSPCSPRITE.CSO
^C:\USERS\TAKUTO\DOCUMENTS\LTEAM_SEISAKU2\LTEAM_SEISAKU\DXSHARED\SHADERS\PSPCSTATIC.HLSL
C:\USERS\TAKUTO\DOCUMENTS\LTEAM_SEISAKU2\LTEAM_SEISAKU\MEDIA\SHADERS\PSPCSTATIC.CSO
^C:\USERS\TAKUTO\DOCUMENTS\LTEAM_SEISAKU2\LTEAM_SEISAKU\DXSHARED\SHADERS\PSPCTSPRITE.HLSL
C:\USERS\TAKUTO\DOCUMENTS\LTEAM_SEISAKU2\LTEAM_SEISAKU\MEDIA\SHADERS\PSPCTSPRITE.CSO
^C:\USERS\TAKUTO\DOCUMENTS\LTEAM_SEISAKU2\LTEAM_SEISAKU\DXSHARED\SHADERS\PSPCTSTATIC.HLSL
C:\USERS\TAKUTO\DOCUMENTS\LTEAM_SEISAKU2\LTEAM_SEISAKU\MEDIA\SHADERS\PSPCTSTATIC.CSO
^C:\USERS\TAKUTO\DOCUMENTS\LTEAM_SEISAKU2\LTEAM_SEISAKU\DXSHARED\SHADERS\PSPNTSTATIC.HLSL
C:\USERS\TAKUTO\DOCUMENTS\LTEAM_SEISAKU2\LTEAM_SEISAKU\MEDIA\SHADERS\PSPNTSTATIC.CSO
^C:\USERS\TAKUTO\DOCUMENTS\LTEAM_SEISAKU2\LTEAM_SEISAKU\DXSHARED\SHADERS\PSPNTSTATICSHADOW.HLSL
C:\USERS\TAKUTO\DOCUMENTS\LTEAM_SEISAKU2\LTEAM_SEISAKU\MEDIA\SHADERS\PSPNTSTATICSHADOW.CSO
^C:\USERS\TAKUTO\DOCUMENTS\LTEAM_SEISAKU2\LTEAM_SEISAKU\DXSHARED\SHADERS\PSPNTSTATICSHADOW2.HLSL
C:\USERS\TAKUTO\DOCUMENTS\LTEAM_SEISAKU2\LTEAM_SEISAKU\MEDIA\SHADERS\PSPNTSTATICSHADOW2.CSO
^C:\USERS\TAKUTO\DOCUMENTS\LTEAM_SEISAKU2\LTEAM_SEISAKU\DXSHARED\SHADERS\PSPTSPRITE.HLSL
C:\USERS\TAKUTO\DOCUMENTS\LTEAM_SEISAKU2\LTEAM_SEISAKU\MEDIA\SHADERS\PSPTSPRITE.CSO
^C:\USERS\TAKUTO\DOCUMENTS\LTEAM_SEISAKU2\LTEAM_SEISAKU\DXSHARED\SHADERS\VSPCSPRITE.HLSL
C:\USERS\TAKUTO\DOCUMENTS\LTEAM_SEISAKU2\LTEAM_SEISAKU\MEDIA\SHADERS\VSPCSPRITE.CSO
^C:\USERS\TAKUTO\DOCUMENTS\LTEAM_SEISAKU2\LTEAM_SEISAKU\DXSHARED\SHADERS\VSPCSTATIC.HLSL
C:\USERS\TAKUTO\DOCUMENTS\LTEAM_SEISAKU2\LTEAM_SEISAKU\MEDIA\SHADERS\VSPCSTATIC.CSO
^C:\USERS\TAKUTO\DOCUMENTS\LTEAM_SEISAKU2\LTEAM_SEISAKU\DXSHARED\SHADERS\VSPCTINSTANCE.HLSL
C:\USERS\TAKUTO\DOCUMENTS\LTEAM_SEISAKU2\LTEAM_SEISAKU\MEDIA\SHADERS\VSPCTINSTANCE.CSO
^C:\USERS\TAKUTO\DOCUMENTS\LTEAM_SEISAKU2\LTEAM_SEISAKU\DXSHARED\SHADERS\VSPCTSPRITE.HLSL
C:\USERS\TAKUTO\DOCUMENTS\LTEAM_SEISAKU2\LTEAM_SEISAKU\MEDIA\SHADERS\VSPCTSPRITE.CSO
^C:\USERS\TAKUTO\DOCUMENTS\LTEAM_SEISAKU2\LTEAM_SEISAKU\DXSHARED\SHADERS\VSPCTSTATIC.HLSL
C:\USERS\TAKUTO\DOCUMENTS\LTEAM_SEISAKU2\LTEAM_SEISAKU\MEDIA\SHADERS\VSPCTSTATIC.CSO
^C:\USERS\TAKUTO\DOCUMENTS\LTEAM_SEISAKU2\LTEAM_SEISAKU\DXSHARED\SHADERS\VSPNTSTATIC.HLSL
C:\USERS\TAKUTO\DOCUMENTS\LTEAM_SEISAKU2\LTEAM_SEISAKU\MEDIA\SHADERS\VSPNTSTATIC.CSO
^C:\USERS\TAKUTO\DOCUMENTS\LTEAM_SEISAKU2\LTEAM_SEISAKU\DXSHARED\SHADERS\VSPNTSTATICSHADOW.HLSL
C:\USERS\TAKUTO\DOCUMENTS\LTEAM_SEISAKU2\LTEAM_SEISAKU\MEDIA\SHADERS\VSPNTSTATICSHADOW.CSO
^C:\USERS\TAKUTO\DOCUMENTS\LTEAM_SEISAKU2\LTEAM_SEISAKU\DXSHARED\SHADERS\VSPTSPRITE.HLSL
C:\USERS\TAKUTO\DOCUMENTS\LTEAM_SEISAKU2\LTEAM_SEISAKU\MEDIA\SHADERS\VSPTSPRITE.CSO
^C:\USERS\TAKUTO\DOCUMENTS\LTEAM_SEISAKU2\LTEAM_SEISAKU\DXSHARED\SHADERS\VSSHADOWMAP.HLSL
C:\USERS\TAKUTO\DOCUMENTS\LTEAM_SEISAKU2\LTEAM_SEISAKU\MEDIA\SHADERS\VSSHADOWMAP.CSO
^C:\USERS\TAKUTO\DOCUMENTS\LTEAM_SEISAKU2\LTEAM_SEISAKU\DXSHARED\SHADERS\VSSHADOWMAPBONE.HLSL
C:\USERS\TAKUTO\DOCUMENTS\LTEAM_SEISAKU2\LTEAM_SEISAKU\MEDIA\SHADERS\VSSHADOWMAPBONE.CSO
^C:\USERS\YOICHIROU\DOCUMENTS\LTEAM_SEISAKU2\LTEAM_SEISAKU\DXSHARED\SHADERS\PSPCSPRITE.HLSL
C:\USERS\YOICHIROU\DOCUMENTS\LTEAM_SEISAKU2\LTEAM_SEISAKU\MEDIA\SHADERS\PSPCSPRITE.CSO
^C:\USERS\YOICHIROU\DOCUMENTS\LTEAM_SEISAKU2\LTEAM_SEISAKU\DXSHARED\SHADERS\PSPCSTATIC.HLSL
C:\USERS\YOICHIROU\DOCUMENTS\LTEAM_SEISAKU2\LTEAM_SEISAKU\MEDIA\SHADERS\PSPCSTATIC.CSO
^C:\USERS\YOICHIROU\DOCUMENTS\LTEAM_SEISAKU2\LTEAM_SEISAKU\DXSHARED\SHADERS\PSPCTSPRITE.HLSL
C:\USERS\YOICHIROU\DOCUMENTS\LTEAM_SEISAKU2\LTEAM_SEISAKU\MEDIA\SHADERS\PSPCTSPRITE.CSO
^C:\USERS\YOICHIROU\DOCUMENTS\LTEAM_SEISAKU2\LTEAM_SEISAKU\DXSHARED\SHADERS\PSPCTSTATIC.HLSL
C:\USERS\YOICHIROU\DOCUMENTS\LTEAM_SEISAKU2\LTEAM_SEISAKU\MEDIA\SHADERS\PSPCTSTATIC.CSO
^C:\USERS\YOICHIROU\DOCUMENTS\LTEAM_SEISAKU2\LTEAM_SEISAKU\DXSHARED\SHADERS\PSPNTSTATIC.HLSL
C:\USERS\YOICHIROU\DOCUMENTS\LTEAM_SEISAKU2\LTEAM_SEISAKU\MEDIA\SHADERS\PSPNTSTATIC.CSO
^C:\USERS\YOICHIROU\DOCUMENTS\LTEAM_SEISAKU2\LTEAM_SEISAKU\DXSHARED\SHADERS\PSPNTSTATICSHADOW.HLSL
C:\USERS\YOICHIROU\DOCUMENTS\LTEAM_SEISAKU2\LTEAM_SEISAKU\MEDIA\SHADERS\PSPNTSTATICSHADOW.CSO
^C:\USERS\YOICHIROU\DOCUMENTS\LTEAM_SEISAKU2\LTEAM_SEISAKU\DXSHARED\SHADERS\PSPNTSTATICSHADOW2.HLSL
C:\USERS\YOICHIROU\DOCUMENTS\LTEAM_SEISAKU2\LTEAM_SEISAKU\MEDIA\SHADERS\PSPNTSTATICSHADOW2.CSO
^C:\USERS\YOICHIROU\DOCUMENTS\LTEAM_SEISAKU2\LTEAM_SEISAKU\DXSHARED\SHADERS\PSPTSPRITE.HLSL
C:\USERS\YOICHIROU\DOCUMENTS\LTEAM_SEISAKU2\LTEAM_SEISAKU\MEDIA\SHADERS\PSPTSPRITE.CSO
^C:\USERS\YOICHIROU\DOCUMENTS\LTEAM_SEISAKU2\LTEAM_SEISAKU\DXSHARED\SHADERS\VSPCSPRITE.HLSL
C:\USERS\YOICHIROU\DOCUMENTS\LTEAM_SEISAKU2\LTEAM_SEISAKU\MEDIA\SHADERS\VSPCSPRITE.CSO
^C:\USERS\YOICHIROU\DOCUMENTS\LTEAM_SEISAKU2\LTEAM_SEISAKU\DXSHARED\SHADERS\VSPCSTATIC.HLSL
C:\USERS\YOICHIROU\DOCUMENTS\LTEAM_SEISAKU2\LTEAM_SEISAKU\MEDIA\SHADERS\VSPCSTATIC.CSO
^C:\USERS\YOICHIROU\DOCUMENTS\LTEAM_SEISAKU2\LTEAM_SEISAKU\DXSHARED\SHADERS\VSPCTINSTANCE.HLSL
C:\USERS\YOICHIROU\DOCUMENTS\LTEAM_SEISAKU2\LTEAM_SEISAKU\MEDIA\SHADERS\VSPCTINSTANCE.CSO
^C:\USERS\YOICHIROU\DOCUMENTS\LTEAM_SEISAKU2\LTEAM_SEISAKU\DXSHARED\SHADERS\VSPCTSPRITE.HLSL
C:\USERS\YOICHIROU\DOCUMENTS\LTEAM_SEISAKU2\LTEAM_SEISAKU\MEDIA\SHADERS\VSPCTSPRITE.CSO
^C:\USERS\YOICHIROU\DOCUMENTS\LTEAM_SEISAKU2\LTEAM_SEISAKU\DXSHARED\SHADERS\VSPCTSTATIC.HLSL
C:\USERS\YOICHIROU\DOCUMENTS\LTEAM_SEISAKU2\LTEAM_SEISAKU\MEDIA\SHADERS\VSPCTSTATIC.CSO
^C:\USERS\YOICHIROU\DOCUMENTS\LTEAM_SEISAKU2\LTEAM_SEISAKU\DXSHARED\SHADERS\VSPNTSTATIC.HLSL
C:\USERS\YOICHIROU\DOCUMENTS\LTEAM_SEISAKU2\LTEAM_SEISAKU\MEDIA\SHADERS\VSPNTSTATIC.CSO
^C:\USERS\YOICHIROU\DOCUMENTS\LTEAM_SEISAKU2\LTEAM_SEISAKU\DXSHARED\SHADERS\VSPNTSTATICSHADOW.HLSL
C:\USERS\YOICHIROU\DOCUMENTS\LTEAM_SEISAKU2\LTEAM_SEISAKU\MEDIA\SHADERS\VSPNTSTATICSHADOW.CSO
^C:\USERS\YOICHIROU\DOCUMENTS\LTEAM_SEISAKU2\LTEAM_SEISAKU\DXSHARED\SHADERS\VSPTSPRITE.HLSL
C:\USERS\YOICHIROU\DOCUMENTS\LTEAM_SEISAKU2\LTEAM_SEISAKU\MEDIA\SHADERS\VSPTSPRITE.CSO
^C:\USERS\YOICHIROU\DOCUMENTS\LTEAM_SEISAKU2\LTEAM_SEISAKU\DXSHARED\SHADERS\VSSHADOWMAP.HLSL
C:\USERS\YOICHIROU\DOCUMENTS\LTEAM_SEISAKU2\LTEAM_SEISAKU\MEDIA\SHADERS\VSSHADOWMAP.CSO
^C:\USERS\YOICHIROU\DOCUMENTS\LTEAM_SEISAKU2\LTEAM_SEISAKU\DXSHARED\SHADERS\VSSHADOWMAPBONE.HLSL
C:\USERS\YOICHIROU\DOCUMENTS\LTEAM_SEISAKU2\LTEAM_SEISAKU\MEDIA\SHADERS\VSSHADOWMAPBONE.CSO
