^C:\USERS\TAKUTO\DESKTOP\BASECROSS-MASTER\SIMPLSAMPLE015\TEMP\DX11\DEBUG\ACTION.OBJ|C:\USERS\TAKUTO\DESKTOP\BASECROSS-MASTER\SIMPLSAMPLE015\TEMP\DX11\DEBUG\APP.OBJ|C:\USERS\TAKUTO\DESKTOP\BASECROSS-MASTER\SIMPLSAMPLE015\TEMP\DX11\DEBUG\BASECROSSDX11.RES|C:\USERS\TAKUTO\DESKTOP\BASECROSS-MASTER\SIMPLSAMPLE015\TEMP\DX11\DEBUG\BASEHELPER.OBJ|C:\USERS\TAKUTO\DESKTOP\BASECROSS-MASTER\SIMPLSAMPLE015\TEMP\DX11\DEBUG\CHARACTER.OBJ|C:\USERS\TAKUTO\DESKTOP\BASECROSS-MASTER\SIMPLSAMPLE015\TEMP\DX11\DEBUG\COLLISION.OBJ|C:\USERS\TAKUTO\DESKTOP\BASECROSS-MASTER\SIMPLSAMPLE015\TEMP\DX11\DEBUG\COMPONENTS.OBJ|C:\USERS\TAKUTO\DESKTOP\BASECROSS-MASTER\SIMPLSAMPLE015\TEMP\DX11\DEBUG\DEVICERESOURCES.OBJ|C:\USERS\TAKUTO\DESKTOP\BASECROSS-MASTER\SIMPLSAMPLE015\TEMP\DX11\DEBUG\DRAWCOMPONENTS.OBJ|C:\USERS\TAKUTO\DESKTOP\BASECROSS-MASTER\SIMPLSAMPLE015\TEMP\DX11\DEBUG\GAMEOBJECT.OBJ|C:\USERS\TAKUTO\DESKTOP\BASECROSS-MASTER\SIMPLSAMPLE015\TEMP\DX11\DEBUG\GAMESTAGE.OBJ|C:\USERS\TAKUTO\DESKTOP\BASECROSS-MASTER\SIMPLSAMPLE015\TEMP\DX11\DEBUG\GRAVITY.OBJ|C:\USERS\TAKUTO\DESKTOP\BASECROSS-MASTER\SIMPLSAMPLE015\TEMP\DX11\DEBUG\MESHHELPER.OBJ|C:\USERS\TAKUTO\DESKTOP\BASECROSS-MASTER\SIMPLSAMPLE015\TEMP\DX11\DEBUG\PLAYER.OBJ|C:\USERS\TAKUTO\DESKTOP\BASECROSS-MASTER\SIMPLSAMPLE015\TEMP\DX11\DEBUG\PROJECTSHADER.OBJ|C:\USERS\TAKUTO\DESKTOP\BASECROSS-MASTER\SIMPLSAMPLE015\TEMP\DX11\DEBUG\RIGIDBODY.OBJ|C:\USERS\TAKUTO\DESKTOP\BASECROSS-MASTER\SIMPLSAMPLE015\TEMP\DX11\DEBUG\SCENE.OBJ|C:\USERS\TAKUTO\DESKTOP\BASECROSS-MASTER\SIMPLSAMPLE015\TEMP\DX11\DEBUG\SHAREDRESOURCES.OBJ|C:\USERS\TAKUTO\DESKTOP\BASECROSS-MASTER\SIMPLSAMPLE015\TEMP\DX11\DEBUG\STDAFX.OBJ|C:\USERS\TAKUTO\DESKTOP\BASECROSS-MASTER\SIMPLSAMPLE015\TEMP\DX11\DEBUG\STRINGCOMPONENTS.OBJ|C:\USERS\TAKUTO\DESKTOP\BASECROSS-MASTER\SIMPLSAMPLE015\TEMP\DX11\DEBUG\VERTEXHELPER.OBJ|C:\USERS\TAKUTO\DESKTOP\BASECROSS-MASTER\SIMPLSAMPLE015\TEMP\DX11\DEBUG\WINMAIN.OBJ|C:\USERS\TAKUTO\DESKTOP\BASECROSS-MASTER\SIMPLSAMPLE015\TEMP\DX11\DEBUG\XMLDOC.OBJ
C:\USERS\TAKUTO\DESKTOP\BASECROSS-MASTER\SIMPLSAMPLE015\DEBUG\BASECROSSDX11.ILK
C:\USERS\TAKUTO\DESKTOP\BASECROSS-MASTER\SIMPLSAMPLE015\DEBUG\BASECROSSDX11.EXE
C:\USERS\TAKUTO\DESKTOP\BASECROSS-MASTER\SIMPLSAMPLE015\DEBUG\BASECROSSDX11.PDB
^C:\USERS\TAKUTO\DOCUMENTS\LTEAM_SEISAKU2\LTEAM_SEISAKU\TEMP\DX11\DEBUG\ACTION.OBJ|C:\USERS\TAKUTO\DOCUMENTS\LTEAM_SEISAKU2\LTEAM_SEISAKU\TEMP\DX11\DEBUG\APP.OBJ|C:\USERS\TAKUTO\DOCUMENTS\LTEAM_SEISAKU2\LTEAM_SEISAKU\TEMP\DX11\DEBUG\BASECROSSDX11.RES|C:\USERS\TAKUTO\DOCUMENTS\LTEAM_SEISAKU2\LTEAM_SEISAKU\TEMP\DX11\DEBUG\BASEHELPER.OBJ|C:\USERS\TAKUTO\DOCUMENTS\LTEAM_SEISAKU2\LTEAM_SEISAKU\TEMP\DX11\DEBUG\CHARACTER.OBJ|C:\USERS\TAKUTO\DOCUMENTS\LTEAM_SEISAKU2\LTEAM_SEISAKU\TEMP\DX11\DEBUG\COLLISION.OBJ|C:\USERS\TAKUTO\DOCUMENTS\LTEAM_SEISAKU2\LTEAM_SEISAKU\TEMP\DX11\DEBUG\COMPONENTS.OBJ|C:\USERS\TAKUTO\DOCUMENTS\LTEAM_SEISAKU2\LTEAM_SEISAKU\TEMP\DX11\DEBUG\CSV.OBJ|C:\USERS\TAKUTO\DOCUMENTS\LTEAM_SEISAKU2\LTEAM_SEISAKU\TEMP\DX11\DEBUG\DEVICERESOURCES.OBJ|C:\USERS\TAKUTO\DOCUMENTS\LTEAM_SEISAKU2\LTEAM_SEISAKU\TEMP\DX11\DEBUG\DOG.OBJ|C:\USERS\TAKUTO\DOCUMENTS\LTEAM_SEISAKU2\LTEAM_SEISAKU\TEMP\DX11\DEBUG\DRAWCOMPONENTS.OBJ|C:\USERS\TAKUTO\DOCUMENTS\LTEAM_SEISAKU2\LTEAM_SEISAKU\TEMP\DX11\DEBUG\GAMEOBJECT.OBJ|C:\USERS\TAKUTO\DOCUMENTS\LTEAM_SEISAKU2\LTEAM_SEISAKU\TEMP\DX11\DEBUG\GAMESTAGE.OBJ|C:\USERS\TAKUTO\DOCUMENTS\LTEAM_SEISAKU2\LTEAM_SEISAKU\TEMP\DX11\DEBUG\GRAVITY.OBJ|C:\USERS\TAKUTO\DOCUMENTS\LTEAM_SEISAKU2\LTEAM_SEISAKU\TEMP\DX11\DEBUG\MESHHELPER.OBJ|C:\USERS\TAKUTO\DOCUMENTS\LTEAM_SEISAKU2\LTEAM_SEISAKU\TEMP\DX11\DEBUG\PLAYER.OBJ|C:\USERS\TAKUTO\DOCUMENTS\LTEAM_SEISAKU2\LTEAM_SEISAKU\TEMP\DX11\DEBUG\PROJECTSHADER.OBJ|C:\USERS\TAKUTO\DOCUMENTS\LTEAM_SEISAKU2\LTEAM_SEISAKU\TEMP\DX11\DEBUG\RIGIDBODY.OBJ|C:\USERS\TAKUTO\DOCUMENTS\LTEAM_SEISAKU2\LTEAM_SEISAKU\TEMP\DX11\DEBUG\SCENE.OBJ|C:\USERS\TAKUTO\DOCUMENTS\LTEAM_SEISAKU2\LTEAM_SEISAKU\TEMP\DX11\DEBUG\SHAREDRESOURCES.OBJ|C:\USERS\TAKUTO\DOCUMENTS\LTEAM_SEISAKU2\LTEAM_SEISAKU\TEMP\DX11\DEBUG\STDAFX.OBJ|C:\USERS\TAKUTO\DOCUMENTS\LTEAM_SEISAKU2\LTEAM_SEISAKU\TEMP\DX11\DEBUG\STRINGCOMPONENTS.OBJ|C:\USERS\TAKUTO\DOCUMENTS\LTEAM_SEISAKU2\LTEAM_SEISAKU\TEMP\DX11\DEBUG\VERTEXHELPER.OBJ|C:\USERS\TAKUTO\DOCUMENTS\LTEAM_SEISAKU2\LTEAM_SEISAKU\TEMP\DX11\DEBUG\WINMAIN.OBJ|C:\USERS\TAKUTO\DOCUMENTS\LTEAM_SEISAKU2\LTEAM_SEISAKU\TEMP\DX11\DEBUG\XMLDOC.OBJ
C:\USERS\TAKUTO\DOCUMENTS\LTEAM_SEISAKU2\LTEAM_SEISAKU\DEBUG\BASECROSSDX11.ILK
C:\USERS\TAKUTO\DOCUMENTS\LTEAM_SEISAKU2\LTEAM_SEISAKU\DEBUG\BASECROSSDX11.EXE
C:\USERS\TAKUTO\DOCUMENTS\LTEAM_SEISAKU2\LTEAM_SEISAKU\DEBUG\BASECROSSDX11.PDB
^C:\USERS\YOICHIROU\DOCUMENTS\LTEAM_SEISAKU2\LTEAM_SEISAKU\TEMP\DX11\DEBUG\ACTION.OBJ|C:\USERS\YOICHIROU\DOCUMENTS\LTEAM_SEISAKU2\LTEAM_SEISAKU\TEMP\DX11\DEBUG\APP.OBJ|C:\USERS\YOICHIROU\DOCUMENTS\LTEAM_SEISAKU2\LTEAM_SEISAKU\TEMP\DX11\DEBUG\BASECROSSDX11.RES|C:\USERS\YOICHIROU\DOCUMENTS\LTEAM_SEISAKU2\LTEAM_SEISAKU\TEMP\DX11\DEBUG\BASEHELPER.OBJ|C:\USERS\YOICHIROU\DOCUMENTS\LTEAM_SEISAKU2\LTEAM_SEISAKU\TEMP\DX11\DEBUG\CHARACTER.OBJ|C:\USERS\YOICHIROU\DOCUMENTS\LTEAM_SEISAKU2\LTEAM_SEISAKU\TEMP\DX11\DEBUG\COLLISION.OBJ|C:\USERS\YOICHIROU\DOCUMENTS\LTEAM_SEISAKU2\LTEAM_SEISAKU\TEMP\DX11\DEBUG\COMPONENTS.OBJ|C:\USERS\YOICHIROU\DOCUMENTS\LTEAM_SEISAKU2\LTEAM_SEISAKU\TEMP\DX11\DEBUG\CSV.OBJ|C:\USERS\YOICHIROU\DOCUMENTS\LTEAM_SEISAKU2\LTEAM_SEISAKU\TEMP\DX11\DEBUG\DEVICERESOURCES.OBJ|C:\USERS\YOICHIROU\DOCUMENTS\LTEAM_SEISAKU2\LTEAM_SEISAKU\TEMP\DX11\DEBUG\DOG.OBJ|C:\USERS\YOICHIROU\DOCUMENTS\LTEAM_SEISAKU2\LTEAM_SEISAKU\TEMP\DX11\DEBUG\DRAWCOMPONENTS.OBJ|C:\USERS\YOICHIROU\DOCUMENTS\LTEAM_SEISAKU2\LTEAM_SEISAKU\TEMP\DX11\DEBUG\GAMEOBJECT.OBJ|C:\USERS\YOICHIROU\DOCUMENTS\LTEAM_SEISAKU2\LTEAM_SEISAKU\TEMP\DX11\DEBUG\GAMESTAGE.OBJ|C:\USERS\YOICHIROU\DOCUMENTS\LTEAM_SEISAKU2\LTEAM_SEISAKU\TEMP\DX11\DEBUG\GRAVITY.OBJ|C:\USERS\YOICHIROU\DOCUMENTS\LTEAM_SEISAKU2\LTEAM_SEISAKU\TEMP\DX11\DEBUG\MESHHELPER.OBJ|C:\USERS\YOICHIROU\DOCUMENTS\LTEAM_SEISAKU2\LTEAM_SEISAKU\TEMP\DX11\DEBUG\PLAYER.OBJ|C:\USERS\YOICHIROU\DOCUMENTS\LTEAM_SEISAKU2\LTEAM_SEISAKU\TEMP\DX11\DEBUG\PROJECTSHADER.OBJ|C:\USERS\YOICHIROU\DOCUMENTS\LTEAM_SEISAKU2\LTEAM_SEISAKU\TEMP\DX11\DEBUG\RIGIDBODY.OBJ|C:\USERS\YOICHIROU\DOCUMENTS\LTEAM_SEISAKU2\LTEAM_SEISAKU\TEMP\DX11\DEBUG\SCENE.OBJ|C:\USERS\YOICHIROU\DOCUMENTS\LTEAM_SEISAKU2\LTEAM_SEISAKU\TEMP\DX11\DEBUG\SHAREDRESOURCES.OBJ|C:\USERS\YOICHIROU\DOCUMENTS\LTEAM_SEISAKU2\LTEAM_SEISAKU\TEMP\DX11\DEBUG\STDAFX.OBJ|C:\USERS\YOICHIROU\DOCUMENTS\LTEAM_SEISAKU2\LTEAM_SEISAKU\TEMP\DX11\DEBUG\STRINGCOMPONENTS.OBJ|C:\USERS\YOICHIROU\DOCUMENTS\LTEAM_SEISAKU2\LTEAM_SEISAKU\TEMP\DX11\DEBUG\VERTEXHELPER.OBJ|C:\USERS\YOICHIROU\DOCUMENTS\LTEAM_SEISAKU2\LTEAM_SEISAKU\TEMP\DX11\DEBUG\WINMAIN.OBJ|C:\USERS\YOICHIROU\DOCUMENTS\LTEAM_SEISAKU2\LTEAM_SEISAKU\TEMP\DX11\DEBUG\XMLDOC.OBJ
C:\USERS\YOICHIROU\DOCUMENTS\LTEAM_SEISAKU2\LTEAM_SEISAKU\DEBUG\BASECROSSDX11.ILK
C:\USERS\YOICHIROU\DOCUMENTS\LTEAM_SEISAKU2\LTEAM_SEISAKU\DEBUG\BASECROSSDX11.EXE
C:\USERS\YOICHIROU\DOCUMENTS\LTEAM_SEISAKU2\LTEAM_SEISAKU\DEBUG\BASECROSSDX11.PDB
