^C:\USERS\YOICHIROU\DOCUMENTS\LTEAM_SEISAKU2\LTEAM_SEISAKU\TEMP\DX11\RELEASE\ACTION.OBJ|C:\USERS\YOICHIROU\DOCUMENTS\LTEAM_SEISAKU2\LTEAM_SEISAKU\TEMP\DX11\RELEASE\APP.OBJ|C:\USERS\YOICHIROU\DOCUMENTS\LTEAM_SEISAKU2\LTEAM_SEISAKU\TEMP\DX11\RELEASE\BASECROSSDX11.RES|C:\USERS\YOICHIROU\DOCUMENTS\LTEAM_SEISAKU2\LTEAM_SEISAKU\TEMP\DX11\RELEASE\BASEHELPER.OBJ|C:\USERS\YOICHIROU\DOCUMENTS\LTEAM_SEISAKU2\LTEAM_SEISAKU\TEMP\DX11\RELEASE\CHARACTER.OBJ|C:\USERS\YOICHIROU\DOCUMENTS\LTEAM_SEISAKU2\LTEAM_SEISAKU\TEMP\DX11\RELEASE\COLLISION.OBJ|C:\USERS\YOICHIROU\DOCUMENTS\LTEAM_SEISAKU2\LTEAM_SEISAKU\TEMP\DX11\RELEASE\COMPONENTS.OBJ|C:\USERS\YOICHIROU\DOCUMENTS\LTEAM_SEISAKU2\LTEAM_SEISAKU\TEMP\DX11\RELEASE\CSV.OBJ|C:\USERS\YOICHIROU\DOCUMENTS\LTEAM_SEISAKU2\LTEAM_SEISAKU\TEMP\DX11\RELEASE\DEVICERESOURCES.OBJ|C:\USERS\YOICHIROU\DOCUMENTS\LTEAM_SEISAKU2\LTEAM_SEISAKU\TEMP\DX11\RELEASE\DOG.OBJ|C:\USERS\YOICHIROU\DOCUMENTS\LTEAM_SEISAKU2\LTEAM_SEISAKU\TEMP\DX11\RELEASE\DRAWCOMPONENTS.OBJ|C:\USERS\YOICHIROU\DOCUMENTS\LTEAM_SEISAKU2\LTEAM_SEISAKU\TEMP\DX11\RELEASE\GAMEOBJECT.OBJ|C:\USERS\YOICHIROU\DOCUMENTS\LTEAM_SEISAKU2\LTEAM_SEISAKU\TEMP\DX11\RELEASE\GAMESTAGE.OBJ|C:\USERS\YOICHIROU\DOCUMENTS\LTEAM_SEISAKU2\LTEAM_SEISAKU\TEMP\DX11\RELEASE\GRAVITY.OBJ|C:\USERS\YOICHIROU\DOCUMENTS\LTEAM_SEISAKU2\LTEAM_SEISAKU\TEMP\DX11\RELEASE\MESHHELPER.OBJ|C:\USERS\YOICHIROU\DOCUMENTS\LTEAM_SEISAKU2\LTEAM_SEISAKU\TEMP\DX11\RELEASE\PLAYER.OBJ|C:\USERS\YOICHIROU\DOCUMENTS\LTEAM_SEISAKU2\LTEAM_SEISAKU\TEMP\DX11\RELEASE\PROJECTSHADER.OBJ|C:\USERS\YOICHIROU\DOCUMENTS\LTEAM_SEISAKU2\LTEAM_SEISAKU\TEMP\DX11\RELEASE\RIGIDBODY.OBJ|C:\USERS\YOICHIROU\DOCUMENTS\LTEAM_SEISAKU2\LTEAM_SEISAKU\TEMP\DX11\RELEASE\SCENE.OBJ|C:\USERS\YOICHIROU\DOCUMENTS\LTEAM_SEISAKU2\LTEAM_SEISAKU\TEMP\DX11\RELEASE\SHAREDRESOURCES.OBJ|C:\USERS\YOICHIROU\DOCUMENTS\LTEAM_SEISAKU2\LTEAM_SEISAKU\TEMP\DX11\RELEASE\STDAFX.OBJ|C:\USERS\YOICHIROU\DOCUMENTS\LTEAM_SEISAKU2\LTEAM_SEISAKU\TEMP\DX11\RELEASE\STRINGCOMPONENTS.OBJ|C:\USERS\YOICHIROU\DOCUMENTS\LTEAM_SEISAKU2\LTEAM_SEISAKU\TEMP\DX11\RELEASE\VERTEXHELPER.OBJ|C:\USERS\YOICHIROU\DOCUMENTS\LTEAM_SEISAKU2\LTEAM_SEISAKU\TEMP\DX11\RELEASE\WINMAIN.OBJ|C:\USERS\YOICHIROU\DOCUMENTS\LTEAM_SEISAKU2\LTEAM_SEISAKU\TEMP\DX11\RELEASE\XMLDOC.OBJ
C:\PROGRAM FILES (X86)\MICROSOFT VISUAL STUDIO 14.0\VC\BIN\VCTIP.EXE
C:\WINDOWS\SYSTEM32\TZRES.DLL
C:\WINDOWS\GLOBALIZATION\SORTING\SORTDEFAULT.NLS
C:\PROGRAM FILES (X86)\WINDOWS KITS\8.1\LIB\WINV6.3\UM\X86\KERNEL32.LIB
C:\PROGRAM FILES (X86)\WINDOWS KITS\8.1\LIB\WINV6.3\UM\X86\USER32.LIB
C:\PROGRAM FILES (X86)\WINDOWS KITS\8.1\LIB\WINV6.3\UM\X86\GDI32.LIB
C:\PROGRAM FILES (X86)\WINDOWS KITS\8.1\LIB\WINV6.3\UM\X86\WINSPOOL.LIB
C:\PROGRAM FILES (X86)\WINDOWS KITS\8.1\LIB\WINV6.3\UM\X86\COMDLG32.LIB
C:\PROGRAM FILES (X86)\WINDOWS KITS\8.1\LIB\WINV6.3\UM\X86\ADVAPI32.LIB
C:\PROGRAM FILES (X86)\WINDOWS KITS\8.1\LIB\WINV6.3\UM\X86\SHELL32.LIB
C:\PROGRAM FILES (X86)\WINDOWS KITS\8.1\LIB\WINV6.3\UM\X86\OLE32.LIB
C:\PROGRAM FILES (X86)\WINDOWS KITS\8.1\LIB\WINV6.3\UM\X86\OLEAUT32.LIB
C:\PROGRAM FILES (X86)\WINDOWS KITS\8.1\LIB\WINV6.3\UM\X86\UUID.LIB
C:\PROGRAM FILES (X86)\WINDOWS KITS\8.1\LIB\WINV6.3\UM\X86\ODBC32.LIB
C:\PROGRAM FILES (X86)\WINDOWS KITS\8.1\LIB\WINV6.3\UM\X86\ODBCCP32.LIB
C:\USERS\YOICHIROU\DOCUMENTS\LTEAM_SEISAKU2\LTEAM_SEISAKU\TEMP\DX11\RELEASE\BASECROSSDX11.RES
C:\USERS\YOICHIROU\DOCUMENTS\LTEAM_SEISAKU2\LTEAM_SEISAKU\TEMP\DX11\RELEASE\DEVICERESOURCES.OBJ
C:\USERS\YOICHIROU\DOCUMENTS\LTEAM_SEISAKU2\LTEAM_SEISAKU\TEMP\DX11\RELEASE\VERTEXHELPER.OBJ
C:\USERS\YOICHIROU\DOCUMENTS\LTEAM_SEISAKU2\LTEAM_SEISAKU\TEMP\DX11\RELEASE\APP.OBJ
C:\USERS\YOICHIROU\DOCUMENTS\LTEAM_SEISAKU2\LTEAM_SEISAKU\TEMP\DX11\RELEASE\BASEHELPER.OBJ
C:\USERS\YOICHIROU\DOCUMENTS\LTEAM_SEISAKU2\LTEAM_SEISAKU\TEMP\DX11\RELEASE\MESHHELPER.OBJ
C:\USERS\YOICHIROU\DOCUMENTS\LTEAM_SEISAKU2\LTEAM_SEISAKU\TEMP\DX11\RELEASE\XMLDOC.OBJ
C:\USERS\YOICHIROU\DOCUMENTS\LTEAM_SEISAKU2\LTEAM_SEISAKU\TEMP\DX11\RELEASE\CHARACTER.OBJ
C:\USERS\YOICHIROU\DOCUMENTS\LTEAM_SEISAKU2\LTEAM_SEISAKU\TEMP\DX11\RELEASE\ACTION.OBJ
C:\USERS\YOICHIROU\DOCUMENTS\LTEAM_SEISAKU2\LTEAM_SEISAKU\TEMP\DX11\RELEASE\COLLISION.OBJ
C:\USERS\YOICHIROU\DOCUMENTS\LTEAM_SEISAKU2\LTEAM_SEISAKU\TEMP\DX11\RELEASE\COMPONENTS.OBJ
C:\USERS\YOICHIROU\DOCUMENTS\LTEAM_SEISAKU2\LTEAM_SEISAKU\TEMP\DX11\RELEASE\DRAWCOMPONENTS.OBJ
C:\USERS\YOICHIROU\DOCUMENTS\LTEAM_SEISAKU2\LTEAM_SEISAKU\TEMP\DX11\RELEASE\GAMEOBJECT.OBJ
C:\USERS\YOICHIROU\DOCUMENTS\LTEAM_SEISAKU2\LTEAM_SEISAKU\TEMP\DX11\RELEASE\GRAVITY.OBJ
C:\USERS\YOICHIROU\DOCUMENTS\LTEAM_SEISAKU2\LTEAM_SEISAKU\TEMP\DX11\RELEASE\RIGIDBODY.OBJ
C:\USERS\YOICHIROU\DOCUMENTS\LTEAM_SEISAKU2\LTEAM_SEISAKU\TEMP\DX11\RELEASE\SHAREDRESOURCES.OBJ
C:\USERS\YOICHIROU\DOCUMENTS\LTEAM_SEISAKU2\LTEAM_SEISAKU\TEMP\DX11\RELEASE\STRINGCOMPONENTS.OBJ
C:\USERS\YOICHIROU\DOCUMENTS\LTEAM_SEISAKU2\LTEAM_SEISAKU\TEMP\DX11\RELEASE\CSV.OBJ
C:\USERS\YOICHIROU\DOCUMENTS\LTEAM_SEISAKU2\LTEAM_SEISAKU\TEMP\DX11\RELEASE\DOG.OBJ
C:\USERS\YOICHIROU\DOCUMENTS\LTEAM_SEISAKU2\LTEAM_SEISAKU\TEMP\DX11\RELEASE\GAMESTAGE.OBJ
C:\USERS\YOICHIROU\DOCUMENTS\LTEAM_SEISAKU2\LTEAM_SEISAKU\TEMP\DX11\RELEASE\PLAYER.OBJ
C:\USERS\YOICHIROU\DOCUMENTS\LTEAM_SEISAKU2\LTEAM_SEISAKU\TEMP\DX11\RELEASE\PROJECTSHADER.OBJ
C:\USERS\YOICHIROU\DOCUMENTS\LTEAM_SEISAKU2\LTEAM_SEISAKU\TEMP\DX11\RELEASE\SCENE.OBJ
C:\USERS\YOICHIROU\DOCUMENTS\LTEAM_SEISAKU2\LTEAM_SEISAKU\TEMP\DX11\RELEASE\STDAFX.OBJ
C:\USERS\YOICHIROU\DOCUMENTS\LTEAM_SEISAKU2\LTEAM_SEISAKU\TEMP\DX11\RELEASE\WINMAIN.OBJ
C:\PROGRAM FILES (X86)\MICROSOFT VISUAL STUDIO 14.0\VC\BIN\C2.DLL
C:\PROGRAM FILES (X86)\MICROSOFT VISUAL STUDIO 14.0\VC\ATLMFC\LIB\ATLS.LIB
C:\PROGRAM FILES (X86)\WINDOWS KITS\8.1\LIB\WINV6.3\UM\X86\SHLWAPI.LIB
C:\PROGRAM FILES (X86)\MICROSOFT VISUAL STUDIO 14.0\VC\LIB\LIBCPMT.LIB
C:\PROGRAM FILES (X86)\WINDOWS KITS\8.1\LIB\WINV6.3\UM\X86\D3D11.LIB
C:\PROGRAM FILES (X86)\WINDOWS KITS\8.1\LIB\WINV6.3\UM\X86\D2D1.LIB
C:\PROGRAM FILES (X86)\WINDOWS KITS\8.1\LIB\WINV6.3\UM\X86\DWRITE.LIB
C:\PROGRAM FILES (X86)\WINDOWS KITS\8.1\LIB\WINV6.3\UM\X86\DXGUID.LIB
C:\PROGRAM FILES (X86)\WINDOWS KITS\8.1\LIB\WINV6.3\UM\X86\WINMM.LIB
C:\PROGRAM FILES (X86)\WINDOWS KITS\8.1\LIB\WINV6.3\UM\X86\COMCTL32.LIB
C:\USERS\YOICHIROU\DOCUMENTS\LTEAM_SEISAKU2\LIBS\LIB\DX11\RELEASE\DIRECTXTEX.LIB
C:\PROGRAM FILES (X86)\WINDOWS KITS\8.1\LIB\WINV6.3\UM\X86\XINPUT.LIB
C:\PROGRAM FILES (X86)\WINDOWS KITS\8.1\LIB\WINV6.3\UM\X86\XAUDIO2.LIB
C:\PROGRAM FILES (X86)\WINDOWS KITS\8.1\LIB\WINV6.3\UM\X86\MFPLAT.LIB
C:\PROGRAM FILES (X86)\WINDOWS KITS\8.1\LIB\WINV6.3\UM\X86\MFREADWRITE.LIB
C:\PROGRAM FILES (X86)\WINDOWS KITS\8.1\LIB\WINV6.3\UM\X86\WINHTTP.LIB
C:\PROGRAM FILES (X86)\MICROSOFT VISUAL STUDIO 14.0\VC\LIB\COMSUPPW.LIB
C:\PROGRAM FILES (X86)\MICROSOFT VISUAL STUDIO 14.0\VC\LIB\LIBCMT.LIB
C:\PROGRAM FILES (X86)\MICROSOFT VISUAL STUDIO 14.0\VC\LIB\OLDNAMES.LIB
C:\PROGRAM FILES (X86)\MICROSOFT VISUAL STUDIO 14.0\VC\LIB\LIBCONCRT.LIB
C:\PROGRAM FILES (X86)\MICROSOFT VISUAL STUDIO 14.0\VC\LIB\VCOMP.LIB
C:\PROGRAM FILES (X86)\MICROSOFT VISUAL STUDIO 14.0\VC\LIB\LIBVCRUNTIME.LIB
C:\PROGRAM FILES (X86)\WINDOWS KITS\10\LIB\10.0.10240.0\UCRT\X86\LIBUCRT.LIB
C:\PROGRAM FILES (X86)\MICROSOFT VISUAL STUDIO 14.0\VC\BIN\1041\LINKUI.DLL
C:\USERS\YOICHIROU\DOCUMENTS\LTEAM_SEISAKU2\LTEAM_SEISAKU\RELEASE\BASECROSSDX11.IPDB
C:\USERS\YOICHIROU\DOCUMENTS\LTEAM_SEISAKU2\LTEAM_SEISAKU\RELEASE\BASECROSSDX11.IOBJ
C:\PROGRAM FILES (X86)\WINDOWS KITS\8.1\BIN\X86\RC.EXE
C:\PROGRAM FILES (X86)\MICROSOFT VISUAL STUDIO 14.0\VC\BIN\CVTRES.EXE
